Tidyverse中10个技巧性函数-来源YouTube
…
add_count

iris %>% 
  add_count(Species) %>% 
  select(n,everything())

## # A tibble: 150 x 6
##        n Sepal.Length Sepal.Width Petal.Length Petal.Width Species
##    <int>        <dbl>       <dbl>        <dbl>       <dbl> <fct>  
##  1    50          5.1         3.5          1.4         0.2 setosa 
##  2    50          4.9         3            1.4         0.2 setosa 
##  3    50          4.7         3.2          1.3         0.2 setosa 
##  4    50          4.6         3.1          1.5         0.2 setosa 
##  5    50          5           3.6          1.4         0.2 setosa 
##  6    50          5.4         3.9          1.7         0.4 setosa 
##  7    50          4.6         3.4          1.4         0.3 setosa 
##  8    50          5           3.4          1.5         0.2 setosa 
##  9    50          4.4         2.9          1.4         0.2 setosa 
## 10    50          4.9         3.1          1.5         0.1 setosa 
## # ... with 140 more rows
…
